HTTP/1.1 200 OK
Cache-Control: private
Content-Length: 133
Content-Type: application/json; charset=utf-8
Server: Microsoft-IIS/7.5
X-AspNet-Version: 4.0.30319
Set-Cookie: TOKEN=634d3060-fb68-4cf3-91fb-89d6cad102be
X-Powered-By: ASP.NET
Date: Fri, 16 May 2014 05:09:31 GMT

{"ResponseException":null,"SessionToken":"634d3060-fb68-4cf3-91fb-89d6cad102be","VersionNo":0,"ClientID":2619,"ClientName":"rubikin"}